{
  "meta": {
    "success": true,
    "code": 200,
    "message": "Data peminjaman berhasil diambil."
  },
  "data": {
    "page_data": [
      {
        "id": 1,
        "kode_peminjaman": "00848231",
        "nama": "Kurt Gerlach",
        "email": "nader.henderson@example.net",
        "divisi": "Marketing",
        "nomor_identitas": "20182134",
        "inventory_id": "3",
        "qty": "5",
        "tgl_peminjaman": "2025-07-02",
        "tgl_pengembalian": null,
        "approved": "0",
        "created_at": "2025-07-05T17:40:19.000000Z",
        "updated_at": "2025-07-05T17:40:19.000000Z",
        "inventory": {
          "id": 3,
          "name": "ab",
          "category_id": "5",
          "location_id": "5",
          "supplier_id": "1",
          "quantity": "87",
          "unit": "pcs",
          "condition": "rusak berat",
          "created_at": "2025-07-05T17:40:19.000000Z",
          "updated_at": "2025-07-05T17:40:19.000000Z"
        }
      },
      {
        "id": 2,
        "kode_peminjaman": "92112987",
        "nama": "Mr. Cloyd Ziemann IV",
        "email": "roman.steuber@example.org",
        "divisi": "IT",
        "nomor_identitas": "80960557",
        "inventory_id": "3",
        "qty": "2",
        "tgl_peminjaman": "2025-06-12",
        "tgl_pengembalian": null,
        "approved": null,
        "created_at": "2025-07-05T17:40:19.000000Z",
        "updated_at": "2025-07-05T17:40:19.000000Z",
        "inventory": {
          "id": 3,
          "name": "ab",
          "category_id": "5",
          "location_id": "5",
          "supplier_id": "1",
          "quantity": "87",
          "unit": "pcs",
          "condition": "rusak berat",
          "created_at": "2025-07-05T17:40:19.000000Z",
          "updated_at": "2025-07-05T17:40:19.000000Z"
        }
      },
      {
        "id": 3,
        "kode_peminjaman": "45798102",
        "nama": "Tabitha Effertz",
        "email": "goyette.rodger@example.com",
        "divisi": "Marketing",
        "nomor_identitas": "86237557",
        "inventory_id": "10",
        "qty": "4",
        "tgl_peminjaman": "2025-06-22",
        "tgl_pengembalian": null,
        "approved": "1",
        "created_at": "2025-07-05T17:40:19.000000Z",
        "updated_at": "2025-07-05T17:40:19.000000Z",
        "inventory": {
          "id": 10,
          "name": "facilis",
          "category_id": "1",
          "location_id": "3",
          "supplier_id": "3",
          "quantity": "41",
          "unit": "unit",
          "condition": "rusak ringan",
          "created_at": "2025-07-05T17:40:19.000000Z",
          "updated_at": "2025-07-05T17:40:19.000000Z"
        }
      },
      {
        "id": 4,
        "kode_peminjaman": "33036688",
        "nama": "Henriette Kub Sr.",
        "email": "graham.mozelle@example.com",
        "divisi": "HRD",
        "nomor_identitas": "57770647",
        "inventory_id": "4",
        "qty": "4",
        "tgl_peminjaman": "2025-06-14",
        "tgl_pengembalian": null,
        "approved": "0",
        "created_at": "2025-07-05T17:40:19.000000Z",
        "updated_at": "2025-07-05T17:40:19.000000Z",
        "inventory": {
          "id": 4,
          "name": "odio",
          "category_id": "1",
          "location_id": "2",
          "supplier_id": "3",
          "quantity": "60",
          "unit": "pcs",
          "condition": "rusak berat",
          "created_at": "2025-07-05T17:40:19.000000Z",
          "updated_at": "2025-07-05T17:40:19.000000Z"
        }
      },
      {
        "id": 5,
        "kode_peminjaman": "14561796",
        "nama": "Dr. Abdul Pfannerstill",
        "email": "nkuhlman@example.com",
        "divisi": "Marketing",
        "nomor_identitas": "17934711",
        "inventory_id": "6",
        "qty": "1",
        "tgl_peminjaman": "2025-06-05",
        "tgl_pengembalian": null,
        "approved": "1",
        "created_at": "2025-07-05T17:40:19.000000Z",
        "updated_at": "2025-07-05T17:40:19.000000Z",
        "inventory": {
          "id": 6,
          "name": "ad",
          "category_id": "2",
          "location_id": "5",
          "supplier_id": "5",
          "quantity": "57",
          "unit": "unit",
          "condition": "rusak berat",
          "created_at": "2025-07-05T17:40:19.000000Z",
          "updated_at": "2025-07-05T17:40:19.000000Z"
        }
      },
      {
        "id": 6,
        "kode_peminjaman": "30055592",
        "nama": "Tyree Boyer IV",
        "email": "hilda.von@example.net",
        "divisi": "Finance",
        "nomor_identitas": "94107930",
        "inventory_id": "2",
        "qty": "5",
        "tgl_peminjaman": "2025-06-24",
        "tgl_pengembalian": "2025-07-14",
        "approved": "1",
        "created_at": "2025-07-05T17:40:19.000000Z",
        "updated_at": "2025-07-05T17:40:19.000000Z",
        "inventory": {
          "id": 2,
          "name": "vero",
          "category_id": "1",
          "location_id": "4",
          "supplier_id": "3",
          "quantity": "95",
          "unit": "box",
          "condition": "baik",
          "created_at": "2025-07-05T17:40:19.000000Z",
          "updated_at": "2025-07-05T17:40:19.000000Z"
        }
      },
      {
        "id": 7,
        "kode_peminjaman": "63742507",
        "nama": "Myrtie Kris",
        "email": "casimir91@example.org",
        "divisi": "Finance",
        "nomor_identitas": "38250797",
        "inventory_id": "4",
        "qty": "3",
        "tgl_peminjaman": "2025-06-16",
        "tgl_pengembalian": null,
        "approved": "1",
        "created_at": "2025-07-05T17:40:19.000000Z",
        "updated_at": "2025-07-05T17:40:19.000000Z",
        "inventory": {
          "id": 4,
          "name": "odio",
          "category_id": "1",
          "location_id": "2",
          "supplier_id": "3",
          "quantity": "60",
          "unit": "pcs",
          "condition": "rusak berat",
          "created_at": "2025-07-05T17:40:19.000000Z",
          "updated_at": "2025-07-05T17:40:19.000000Z"
        }
      },
      {
        "id": 8,
        "kode_peminjaman": "32184036",
        "nama": "Orville Wuckert DVM",
        "email": "yschneider@example.org",
        "divisi": "HRD",
        "nomor_identitas": "06964997",
        "inventory_id": "6",
        "qty": "5",
        "tgl_peminjaman": "2025-06-11",
        "tgl_pengembalian": null,
        "approved": "1",
        "created_at": "2025-07-05T17:40:19.000000Z",
        "updated_at": "2025-07-05T17:40:19.000000Z",
        "inventory": {
          "id": 6,
          "name": "ad",
          "category_id": "2",
          "location_id": "5",
          "supplier_id": "5",
          "quantity": "57",
          "unit": "unit",
          "condition": "rusak berat",
          "created_at": "2025-07-05T17:40:19.000000Z",
          "updated_at": "2025-07-05T17:40:19.000000Z"
        }
      },
      {
        "id": 9,
        "kode_peminjaman": "36105211",
        "nama": "Reilly Zemlak Sr.",
        "email": "ferry.marlene@example.net",
        "divisi": "Finance",
        "nomor_identitas": "83145463",
        "inventory_id": "5",
        "qty": "1",
        "tgl_peminjaman": "2025-06-25",
        "tgl_pengembalian": null,
        "approved": "1",
        "created_at": "2025-07-05T17:40:19.000000Z",
        "updated_at": "2025-07-05T17:40:19.000000Z",
        "inventory": {
          "id": 5,
          "name": "quia",
          "category_id": "4",
          "location_id": "3",
          "supplier_id": "5",
          "quantity": "96",
          "unit": "box",
          "condition": "baik",
          "created_at": "2025-07-05T17:40:19.000000Z",
          "updated_at": "2025-07-05T17:40:19.000000Z"
        }
      },
      {
        "id": 10,
        "kode_peminjaman": "01677646",
        "nama": "Elisabeth Morar",
        "email": "oconner.anastacio@example.org",
        "divisi": "Marketing",
        "nomor_identitas": "63145672",
        "inventory_id": "9",
        "qty": "5",
        "tgl_peminjaman": "2025-06-18",
        "tgl_pengembalian": null,
        "approved": "1",
        "created_at": "2025-07-05T17:40:19.000000Z",
        "updated_at": "2025-07-05T17:40:19.000000Z",
        "inventory": {
          "id": 9,
          "name": "sed",
          "category_id": "5",
          "location_id": "4",
          "supplier_id": "5",
          "quantity": "69",
          "unit": "box",
          "condition": "baik",
          "created_at": "2025-07-05T17:40:19.000000Z",
          "updated_at": "2025-07-05T17:40:19.000000Z"
        }
      }
    ],
    "page_info": {
      "current_page": 1,
      "total_pages": 2,
      "total_records": 15,
      "limit": 10,
      "sort": "updated_at",
      "order": "desc",
      "search": null
    }
  }
}